John was added
They are player number 1
Lisa was added
They are player number 2
Peter was added
They are player number 3
John is the current player
They have rolled a 1
John's new location is 1
The category is Science
Science Question 0
Question was incorrectly answered
John was sent to the penalty box
Lisa is the current player
They have rolled a 5
Lisa's new location is 5
The category is Science
Science Question 1
Answer was correct!!!!
Lisa now has 1 Gold Coins.
Peter is the current player
They have rolled a 1
Peter's new location is 1
The category is Science
Science Question 2
Answer was correct!!!!
Peter now has 1 Gold Coins.
John is the current player
They have rolled a 2
John is not getting out of the penalty box
Lisa is the current player
They have rolled a 5
Lisa's new location is 10
The category is Sports
Sports Question 0
Answer was correct!!!!
Lisa now has 2 Gold Coins.
Peter is the current player
They have rolled a 3
Peter's new location is 4
The category is Pop
Pop Question 0
Answer was correct!!!!
Peter now has 2 Gold Coins.
John is the current player
They have rolled a 4
John is not getting out of the penalty box
Lisa is the current player
They have rolled a 1
Lisa's new location is 11
The category is Rock
Rock Question 0
Answer was correct!!!!
Lisa now has 3 Gold Coins.
Peter is the current player
They have rolled a 5
Peter's new location is 9
The category is Science
Science Question 3
Answer was correct!!!!
Peter now has 3 Gold Coins.
John is the current player
They have rolled a 2
John is not getting out of the penalty box
Lisa is the current player
They have rolled a 4
Lisa's new location is 3
The category is Rock
Rock Question 1
Answer was correct!!!!
Lisa now has 4 Gold Coins.
Peter is the current player
They have rolled a 5
Peter's new location is 2
The category is Sports
Sports Question 1
Answer was correct!!!!
Peter now has 4 Gold Coins.
John is the current player
They have rolled a 3
John is getting out of the penalty box
John's new location is 4
The category is Pop
Pop Question 1
Answer was correct!!!!
John now has 1 Gold Coins.
Lisa is the current player
They have rolled a 4
Lisa's new location is 7
The category is Rock
Rock Question 2
Question was incorrectly answered
Lisa was sent to the penalty box
Peter is the current player
They have rolled a 3
Peter's new location is 5
The category is Science
Science Question 4
Answer was correct!!!!
Peter now has 5 Gold Coins.
John is the current player
They have rolled a 1
John is getting out of the penalty box
John's new location is 5
The category is Science
Science Question 5
Answer was correct!!!!
John now has 2 Gold Coins.
Lisa is the current player
They have rolled a 3
Lisa is getting out of the penalty box
Lisa's new location is 10
The category is Sports
Sports Question 2
Answer was correct!!!!
Lisa now has 5 Gold Coins.
Peter is the current player
They have rolled a 3
Peter's new location is 8
The category is Pop
Pop Question 2
Answer was correct!!!!
Peter now has 6 Gold Coins.
